old/19F/ENG220/Lab/2B/simulation/qsim/Lab2_SectionB.msim.vcd
$comment
	File created using the following command:
		vcd file Lab2_SectionB.msim.vcd -direction
$end
$date
	Fri Sep 13 17:02:42 2019
$end
$version
	ModelSim Version 10.1d
$end
$timescale
	1ps
$end
$scope module Lab2_SectionB_vlg_vec_tst $end
$var reg 1 ! A $end
$var reg 1 " B $end
$var reg 1 # C $end
$var wire 1 $ D $end
$var wire 1 % SimpD $end
$var wire 1 & sampler $end
$scope module i1 $end
$var wire 1 ' gnd $end
$var wire 1 ( vcc $end
$var wire 1 ) unknown $end
$var wire 1 * A~dataout $end
$var wire 1 + B~dataout $end
$var wire 1 , C~dataout $end
$var wire 1 - inst7~6_dataout $end
$var wire 1 . inst7~9_dataout $end
$upscope $end
$upscope $end
$enddefinitions $end
#0
$dumpvars
0!
0"
0#
0$
0%
x&
0'
1(
x)
0*
0+
0,
0-
0.
$end
#50000
1!
1*
0&
1.
1-
1%
1$
#100000
1"
0!
1+
0*
1&
0.
0-
0%
0$
#150000
1!
1*
0&
1.
1-
1%
1$
#200000
1#
0"
0!
1,
0+
0*
1&
0.
0-
0%
0$
#250000
1!
1*
0&
#300000
1"
0!
1+
0*
1&
#350000
1!
1*
0&
1.
1-
1%
1$
#400000
0#
0"
0!
0,
0+
0*
1&
0.
0-
0%
0$
#450000
1!
1*
0&
1.
1-
1%
1$
#500000
1"
0!
1+
0*
1&
0.
0-
0%
0$
#550000
1!
1*
0&
1.
1-
1%
1$
#600000
1#
0"
0!
1,
0+
0*
1&
0.
0-
0%
0$
#650000
1!
1*
0&
#700000
1"
0!
1+
0*
1&
#750000
1!
1*
0&
1.
1-
1%
1$
#800000
0#
0"
0!
0,
0+
0*
1&
0.
0-
0%
0$
#850000
1!
1*
0&
1.
1-
1%
1$
#900000
1"
0!
1+
0*
1&
0.
0-
0%
0$
#950000
1!
1*
0&
1.
1-
1%
1$
