old/19F/ENG220/Lab/Engineering HW/simulation/qsim/Lab3.msim.vcd
$comment
	File created using the following command:
		vcd file Lab3.msim.vcd -direction
$end
$date
	Thu Sep 26 23:21:06 2019
$end
$version
	ModelSim Version 10.1d
$end
$timescale
	1ps
$end
$scope module Lab3_vlg_vec_tst $end
$var reg 1 ! Clock $end
$var reg 1 " ResetLow $end
$var wire 1 # L1 $end
$var wire 1 $ L2 $end
$var wire 1 % L3 $end
$var wire 1 & L4 $end
$var wire 1 ' sampler $end
$scope module i1 $end
$var wire 1 ( gnd $end
$var wire 1 ) vcc $end
$var wire 1 * unknown $end
$var wire 1 + Clock~dataout $end
$var wire 1 , ResetLow~dataout $end
$var wire 1 - inst10~3_dataout $end
$var wire 1 . inst10~4_dataout $end
$var wire 1 / inst5~dataout $end
$var wire 1 0 inst4~dataout $end
$var wire 1 1 inst3~dataout $end
$var wire 1 2 inst2~dataout $end
$upscope $end
$upscope $end
$enddefinitions $end
#0
$dumpvars
0!
0"
0#
0$
0%
0&
x'
0(
1)
x*
0+
0,
1-
1.
0/
00
01
02
$end
#25000
1!
1+
0'
#50000
0!
0+
1'
#60000
1"
1,
0'
0.
0-
#75000
1!
1+
1'
1/
1-
1&
#100000
0!
0+
0'
#125000
1!
1+
1'
10
0/
0-
1%
0&
#150000
0!
0+
0'
#175000
1!
1+
1'
1/
1-
1&
#200000
0!
0+
0'
#225000
1!
1+
1'
11
00
0/
0-
1$
0%
0&
#250000
0!
0+
0'
#275000
1!
1+
1'
1/
1-
1&
#300000
0!
0+
0'
#325000
1!
1+
1'
10
0/
0-
1%
0&
#350000
0!
0+
0'
#375000
1!
1+
1'
1/
1-
1&
#400000
0!
0+
0'
#425000
1!
1+
1'
12
01
00
0/
1.
0-
1#
0$
0%
0&
#450000
0!
0+
0'
#475000
1!
1+
1'
1/
1-
1&
02
0/
0.
0-
0#
0&
#500000
0!
0+
0'
#525000
1!
1+
1'
1/
1-
1&
#550000
0!
0+
0'
#575000
1!
1+
1'
10
0/
0-
1%
0&
#600000
0!
0+
0'
#625000
1!
1+
1'
1/
1-
1&
#650000
0!
0+
0'
#675000
1!
1+
1'
11
00
0/
0-
1$
0%
0&
#700000
0!
0+
0'
#725000
1!
1+
1'
1/
1-
1&
#750000
0!
0+
0'
#775000
1!
1+
1'
10
0/
0-
1%
0&
#800000
0!
0+
0'
#825000
1!
1+
1'
1/
1-
1&
#850000
0!
0+
0'
#875000
1!
1+
1'
12
01
00
0/
1.
0-
1#
0$
0%
0&
#900000
0!
0+
0'
#925000
1!
1+
1'
1/
1-
1&
02
0/
0.
0-
0#
0&
#950000
0!
0+
0'
#975000
1!
1+
1'
1/
1-
1&
