old/19F/ENG220/Lab/3/simulation/qsim/Lab3.msim.vcd
$comment
	File created using the following command:
		vcd file Lab3.msim.vcd -direction
$end
$date
	Fri Sep 20 16:14:31 2019
$end
$version
	ModelSim Version 10.1d
$end
$timescale
	1ps
$end
$scope module Lab3_vlg_vec_tst $end
$var reg 1 ! Clock $end
$var reg 1 " ResetLow $end
$var wire 1 # L1 $end
$var wire 1 $ L2 $end
$var wire 1 % L3 $end
$var wire 1 & L4 $end
$var wire 1 ' M1 $end
$var wire 1 ( M2 $end
$var wire 1 ) M3 $end
$var wire 1 * M4 $end
$var wire 1 + sampler $end
$scope module i1 $end
$var wire 1 , gnd $end
$var wire 1 - vcc $end
$var wire 1 . unknown $end
$var wire 1 / Clock~dataout $end
$var wire 1 0 ResetLow~dataout $end
$var wire 1 1 inst5~dataout $end
$var wire 1 2 inst4~dataout $end
$var wire 1 3 inst5~3_dataout $end
$var wire 1 4 inst11~dataout $end
$var wire 1 5 inst3~dataout $end
$var wire 1 6 inst2~dataout $end
$var wire 1 7 inst10~dataout $end
$var wire 1 8 inst9~dataout $end
$upscope $end
$upscope $end
$enddefinitions $end
#0
$dumpvars
0!
0"
0#
0$
0%
0&
1'
1(
1)
1*
x+
0,
1-
x.
0/
00
01
02
13
14
05
06
17
18
$end
#40000
1"
10
0+
#115000
1!
1/
1+
11
03
1&
0*
#140000
0!
0/
0+
#165000
1!
1/
1+
04
12
01
13
0)
1%
0&
1*
#190000
0!
0/
0+
#215000
1!
1/
1+
11
03
1&
0*
#240000
0!
0/
0+
#265000
1!
1/
1+
07
15
14
02
01
13
0(
1$
1)
0%
0&
1*
#290000
0!
0/
0+
#315000
1!
1/
1+
11
03
1&
0*
#340000
0!
0/
0+
#365000
1!
1/
1+
04
12
01
13
0)
1%
0&
1*
#390000
0!
0/
0+
#415000
1!
1/
1+
11
03
1&
0*
#440000
0!
0/
0+
#465000
1!
1/
1+
08
17
16
05
14
02
01
13
0'
1(
1#
0$
1)
0%
0&
1*
#490000
0!
0/
0+
#515000
1!
1/
1+
11
03
1&
0*
#540000
0!
0/
0+
#565000
1!
1/
1+
04
12
01
13
0)
1%
0&
1*
#590000
0!
0/
0+
#615000
1!
1/
1+
11
03
1&
0*
#640000
0!
0/
0+
#665000
1!
1/
1+
07
15
14
02
01
13
0(
1$
1)
0%
0&
1*
#690000
0!
0/
0+
#715000
1!
1/
1+
11
03
1&
0*
#740000
0!
0/
0+
#765000
1!
1/
1+
04
12
01
13
0)
1%
0&
1*
#790000
0!
0/
0+
#815000
1!
1/
1+
11
03
1&
0*
#840000
0!
0/
0+
#865000
1!
1/
1+
18
17
06
05
14
02
01
13
1'
1(
0#
0$
1)
0%
0&
1*
#890000
0!
0/
0+
#915000
1!
1/
1+
11
03
1&
0*
#940000
0!
0/
0+
#965000
1!
1/
1+
04
12
01
13
0)
1%
0&
1*
#990000
0!
0/
0+
