old/19F/ENG220/Lab/4/simulation/qsim/Lab4BABY.msim.vcd
$comment
	File created using the following command:
		vcd file Lab4BABY.msim.vcd -direction
$end
$date
	Fri Sep 27 16:36:40 2019
$end
$version
	ModelSim Version 10.1d
$end
$timescale
	1ps
$end
$scope module Lab4BABY_vlg_vec_tst $end
$var reg 1 ! CLEAR $end
$var reg 1 " In0 $end
$var reg 1 # In1 $end
$var reg 1 $ TICKTOCGOETHCLOCk $end
$var wire 1 % Unit0LED $end
$var wire 1 & Unit1LED $end
$var wire 1 ' sampler $end
$scope module i1 $end
$var wire 1 ( gnd $end
$var wire 1 ) vcc $end
$var wire 1 * unknown $end
$var wire 1 + TICKTOCGOETHCLOCk~dataout $end
$var wire 1 , CLEAR~dataout $end
$var wire 1 - In1~dataout $end
$var wire 1 . In0~dataout $end
$var wire 1 / inst99~dataout $end
$var wire 1 0 inst8~dataout $end
$upscope $end
$upscope $end
$enddefinitions $end
#0
$dumpvars
0!
0"
0#
0$
0%
0&
x'
0(
1)
x*
0+
0,
0-
0.
0/
00
$end
#25000
1"
1.
0'
#40000
1!
1,
1'
#45000
1$
1+
0'
10
1%
#50000
1#
0"
1-
0.
1'
#70000
0$
0+
0'
#75000
1"
1.
1'
#95000
1$
1+
0'
#100000
0#
0"
0-
0.
1'
#120000
0$
0+
0'
#125000
1"
1.
1'
#145000
1$
1+
0'
#150000
1#
0"
1-
0.
1'
#170000
0$
0+
0'
#175000
1"
1.
1'
#195000
1$
1+
0'
#200000
0#
0"
0-
0.
1'
#220000
0$
0+
0'
#225000
1"
1.
1'
#245000
1$
1+
0'
#250000
1#
0"
1-
0.
1'
#270000
0$
0+
0'
#275000
1"
1.
1'
#295000
1$
1+
0'
#300000
0#
0"
0-
0.
1'
#320000
0$
0+
0'
#325000
1"
1.
1'
#345000
1$
1+
0'
#350000
1#
0"
1-
0.
1'
#370000
0$
0+
0'
#375000
1"
1.
1'
#395000
1$
1+
0'
#400000
0#
0"
0-
0.
1'
#420000
0$
0+
0'
#425000
1"
1.
1'
#445000
1$
1+
0'
#450000
1#
0"
1-
0.
1'
#470000
0$
0+
0'
#475000
1"
1.
1'
#495000
1$
1+
0'
#500000
0#
0"
0-
0.
1'
#520000
0$
0+
0'
#525000
1"
1.
1'
#545000
1$
1+
0'
#550000
1#
0"
1-
0.
1'
#570000
0$
0+
0'
#575000
1"
1.
1'
#595000
1$
1+
0'
#600000
0#
0"
0-
0.
1'
#620000
0$
0+
0'
#625000
1"
1.
1'
#645000
1$
1+
0'
#650000
1#
0"
1-
0.
1'
#670000
0$
0+
0'
#675000
1"
1.
1'
#695000
1$
1+
0'
#700000
0#
0"
0-
0.
1'
#720000
0$
0+
0'
#725000
1"
1.
1'
#745000
1$
1+
0'
#750000
1#
0"
1-
0.
1'
#770000
0$
0+
0'
#775000
1"
1.
1'
#795000
1$
1+
0'
#800000
0#
0"
0-
0.
1'
#820000
0$
0+
0'
#825000
1"
1.
1'
#845000
1$
1+
0'
#850000
1#
0"
1-
0.
1'
#870000
0$
0+
0'
#875000
1"
1.
1'
#895000
1$
1+
0'
#900000
0#
0"
0-
0.
1'
#920000
0$
0+
0'
#925000
1"
1.
1'
#945000
1$
1+
0'
#950000
1#
0"
1-
0.
1'
#970000
0$
0+
0'
#975000
1"
1.
1'
#995000
1$
1+
0'
